{
  "schedules": [
      {
      "date": "16 Nov 2017",
      "sponsor": {
        "sponsor": "Check Point Software Technologies"
//        "image": ""
      },
      "introtalks": [
        {
          "title": "SecDSM 101",
          "time": "6:00 PM",
          "description": "A brief introduction to the group along with any announcements and general communication."
        },
        {
          "title": "SecDSM News",
          "time": "6:05 PM",
          "description": "Quick Review of the Month's InfoSec news.",
          "speaker": {
            "name": "James Beal"
          }
        }
      ],
      "subgroups": [
        {
          "title": "Des Moines Locksport",
          "description": "A side room will be dedicated to locksport."
//          "time": "",
//          "speaker": {
//            "name": "",
//            "bio": ""
//          }
        }
      ],
//      "tooltalks": [
//      {
//        "title": "",
//        "time": "6:30 PM",
//        "description": "",
//        "speaker": {
//          "name": "",
//          "bio": ""
//        }
//      }
//      ],
      "features": [
      {
        "title": "SDR CTF Walkthroughs ",
        "time": "6:30 PM",
        "description": "",
        "speaker": {
          "name": "Jake Drahos and Brandon Murphy",
          "bio": ""
        }
      }
      ]
    }
  ],
  "cons": [
/*    {
        "name": "Wild West Hacking Fest",
        "description": "This conference is going to be about breaking things. Non-standard things. Often, this is called “Stunt hacking”. Or, it can be called hacking of the Internet of Things (IoT). The best example one hears about is hacking a toaster, or a fridge. Each of these exploits teach us all something about the type of testing we should be doing in our own organizations. It is these non-standard devices that are going to lead to the next wave of rampant security vulnerabilities that we’ll need to address and remediate. Unfortunately, we do not have a Patch Tuesday for these devices. Much like the Wild West, the IoT is a new frontier – it’s wild, untamed and full of amazing opportunities! Saddle up, grab your lasso, and join us for this adventure!",
        "link": "http://wildwesthackinfest.com/",
        "date": "Oct 27 - 28",
        "location": "   Deadwood, SD",
        "cost": "<p>$100 - Early Bird</p><p>$250 - GA</p>",
        "details": { //optional
            "schedule": [ //optional
                {
                    "day": "Friday",
                    "date": "Oct 27",
                    "start_time": "??",
                    "end_time": "??"
                },
                {
                    "day": "Saturday",
                    "date": "Oct 29",
                    "start_time": "??",
                    "end_time": "??"
                }
            ],
            "travel": { //optional
                "depart": {
                    "day": "Thurday",
                    "date": "Oct 26",
                    "time" : ""
                },
                "return": {
                    "day": "Sunday",
                    "date": "Oct 29",
                    "time" : "???"
                }
            }
        }
    }
*/
  ],
  "monthly": [
     {
      "name": "October",
      "events": [
        {
          "url": "",
          "name": "",
          "time": "",
          "description":"",
          "geolocation": ""
        }
      ]
     },
     {
      "name": "November",
      "events": [
        {
          "url": "https://www.meetup.com/ProductTank-Des-Moines-Ames/events/244357502/",
          "name": "ProductTank Meetup",
          "time": "5:30 PM",
          "description":"This is just a test",
          "geolocation": "https://www.google.com/maps/embed?pb=!1m18!1m12!1m3!1d2984.305744458923!2d-93.63765868456808!3d41.5842679792466!2m3!1f0!2f0!3f0!3m2!1i1024!2i768!4f13.1!3m3!1m2!1s0x87ee991d8dca415f%3A0x84112296254b6c27!2sForge+by+Pillar+Technology!5e0!3m2!1sen!2sus!4v1509763318682"
        }
       ]
     },
     {
      "name": "December",
      "events": [
        {
          "url": "",
          "name": "",
          "time": "",
          "description": "",
          "geolocation": ""
        }
       ]
     }
  ]
}
